…
#> [====================================================================>-----] 199/212 ( 94%) Time remaining: 0s
#> [=====================================================================>----] 200/212 ( 94%) Time remaining: 0s
#> [=====================================================================>----] 201/212 ( 95%) Time remaining: 0s
#> [======================================================================>---] 202/212 ( 95%) Time remaining: 0s
#> [======================================================================>---] 203/212 ( 96%) Time remaining: 0s
#> [======================================================================>---] 204/212 ( 96%) Time remaining: 0s
#> [=======================================================================>--] 205/212 ( 97%) Time remaining: 0s
#> [=======================================================================>--] 206/212 ( 97%) Time remaining: 0s
#> [=======================================================================>--] 207/212 ( 98%) Time remaining: 0s
#> [========================================================================>-] 208/212 ( 98%) Time remaining: 0s
#> [========================================================================>-] 209/212 ( 99%) Time remaining: 0s
#> [========================================================================>-] 210/212 ( 99%) Time remaining: 0s
#> [=========================================================================>] 211/212 (100%) Time remaining: 0s
#> [==========================================================================] 212/212 (100%) Time remaining: 0s
#> # A tibble: 106 x 12
#>       id  time cr_length_06 cr_length_12 cr_max_06 cr_max_12 cr_mean_06 cr_mean_12 cr_median_06 cr_median_12
#>    <int> <dbl>        <dbl>        <dbl>     <dbl>     <dbl>      <dbl>      <dbl>        <dbl>        <dbl>
#>  1     1     0           NA           NA     NA        NA         NA         NA           NA           NA   
#>  2     1     6            3           NA      1.26     NA          1.11      NA            1.18        NA   
#>  3     1    12            1            3      1.08      1.26       1.08       1.11         1.08         1.18
#>  4     1    18            1            1      1.11      1.08       1.11       1.08         1.11         1.08
#>  5     1    24            1            1      1.21      1.11       1.21       1.11         1.21         1.11
#>  6     1    30            3            1      1.08      1.21       1.05       1.21         1.03         1.21
#>  7     1    36            2            3      1.08      1.08       1.03       1.05         1.03         1.03
#>  8     1    42            1            2      1.06      1.08       1.06       1.03         1.06         1.03
#>  9     1    48            2            1      1.20      1.06       1.15       1.06         1.15         1.06
#> 10     1    54            1            2      1.09      1.20       1.09       1.15         1.09         1.15
#> # ... with 96 more rows, and 2 more variables: cr_min_06 <dbl>, cr_min_12 <dbl>
```
…
#> [================================>------------------------------------------] 93/212 ( 44%) Time remaining: 2s
#> [================================>------------------------------------------] 94/212 ( 44%) Time remaining: 2s
#> [=================================>-----------------------------------------] 95/212 ( 45%) Time remaining: 2s
#> [=================================>-----------------------------------------] 96/212 ( 45%) Time remaining: 2s
#> [=================================>-----------------------------------------] 97/212 ( 46%) Time remaining: 2s
#> [==================================>----------------------------------------] 98/212 ( 46%) Time remaining: 2s
#> [==================================>----------------------------------------] 99/212 ( 47%) Time remaining: 2s
#> [==================================>---------------------------------------] 100/212 ( 47%) Time remaining: 2s
#> [==================================>---------------------------------------] 101/212 ( 48%) Time remaining: 2s
#> [===================================>--------------------------------------] 102/212 ( 48%) Time remaining: 2s
#> [===================================>--------------------------------------] 103/212 ( 49%) Time remaining: 2s
#> [===================================>--------------------------------------] 104/212 ( 49%) Time remaining: 2s
#> [====================================>-------------------------------------] 105/212 ( 50%) Time remaining: 2s
#> [====================================>-------------------------------------] 106/212 ( 50%) Time remaining: 2s
#> # A tibble: 106 x 4
#>       id  time cr_any_168 cr_high_no_any_168
#>    <int> <dbl>      <dbl>              <dbl>
#>  1     1     0         NA                 NA
#>  2     1     6          1                  1
#>  3     1    12          1                  1
#>  4     1    18          1                  1
#>  5     1    24          1                  1
#>  6     1    30          1                  1
#>  7     1    36          1                  1
#>  8     1    42          1                  1
#>  9     1    48          1                  1
#> 10     1    54          1                  1
#> # ... with 96 more rows
```
…
identical(new, old)
#> [1] FALSE
```

There are slight differences in the output. If no values are available
early in the patient’s course, then all stats (including length) will
now be have missing values.

``` r
new
#> # A tibble: 106 x 12
#>       id  time cr_length_06 cr_length_12 cr_max_06 cr_max_12 cr_mean_06 cr_mean_12 cr_median_06 cr_median_12
#>    <int> <dbl>        <dbl>        <dbl>     <dbl>     <dbl>      <dbl>      <dbl>        <dbl>        <dbl>
#>  1     1     0           NA           NA     NA        NA         NA         NA           NA           NA   
#>  2     1     6            3           NA      1.26     NA          1.11      NA            1.18        NA   
#>  3     1    12            1            3      1.08      1.26       1.08       1.11         1.08         1.18
#>  4     1    18            1            1      1.11      1.08       1.11       1.08         1.11         1.08
#>  5     1    24            1            1      1.21      1.11       1.21       1.11         1.21         1.11
#>  6     1    30            3            1      1.08      1.21       1.05       1.21         1.03         1.21
#>  7     1    36            2            3      1.08      1.08       1.03       1.05         1.03         1.03
#>  8     1    42            1            2      1.06      1.08       1.06       1.03         1.06         1.03
#>  9     1    48            2            1      1.20      1.06       1.15       1.06         1.15         1.06
#> 10     1    54            1            2      1.09      1.20       1.09       1.15         1.09         1.15
#> # ... with 96 more rows, and 2 more variables: cr_min_06 <dbl>, cr_min_12 <dbl>

old
#> # A tibble: 106 x 12
#>       id  time cr_length_06 cr_length_12 cr_max_06 cr_max_12 cr_mean_06 cr_mean_12 cr_median_06 cr_median_12
#>    <int> <dbl>        <dbl>        <dbl>     <dbl>     <dbl>      <dbl>      <dbl>        <dbl>        <dbl>
#>  1     1     0            0            0     NA        NA         NA         NA           NA           NA   
#>  2     1     6            3            0      1.26     NA          1.11      NA            1.18        NA   
#>  3     1    12            1            3      1.08      1.26       1.08       1.11         1.08         1.18
#>  4     1    18            1            1      1.11      1.08       1.11       1.08         1.11         1.08
#>  5     1    24            1            1      1.21      1.11       1.21       1.11         1.21         1.11
#>  6     1    30            3            1      1.08      1.21       1.05       1.21         1.03         1.21
#>  7     1    36            2            3      1.08      1.08       1.03       1.05         1.03         1.03
#>  8     1    42            1            2      1.06      1.08       1.06       1.03         1.06         1.03
#>  9     1    48            2            1      1.20      1.06       1.15       1.06         1.15         1.06
#> 10     1    54            1            2      1.09      1.20       1.09       1.15         1.09         1.15
#> # ... with 96 more rows, and 2 more variables: cr_min_06 <dbl>, cr_min_12 <dbl>
```
…
